<mxfile host="Electron" modified="2024-01-30T14:40:57.401Z" agent="Mozilla/5.0 (Windows NT 10.0; Win64; x64) AppleWebKit/537.36 (KHTML, like Gecko) draw.io/22.1.18 Chrome/120.0.6099.199 Electron/28.1.2 Safari/537.36" etag="yrUCDB0ss9zvizPYkhCD" version="22.1.18" type="device">
  <diagram name="Stránka-1" id="VOqRjnLJ0ifo6bXRKvhJ">
    <mxGraphModel dx="1050" dy="629" grid="1" gridSize="10" guides="1" tooltips="1" connect="1" arrows="1" fold="1" page="1" pageScale="1" pageWidth="827" pageHeight="1169" math="0" shadow="0">
      <root>
        <mxCell id="0" />
        <mxCell id="1" parent="0" />
        <mxCell id="yD0D7PC7zvQQzbcRS5Cw-3" value="«component»&lt;br style=&quot;font-size: 13px;&quot;&gt;&lt;b style=&quot;font-size: 13px;&quot;&gt;Data Store&lt;/b&gt;" style="html=1;dropTarget=0;whiteSpace=wrap;verticalAlign=middle;align=center;fontFamily=Times New Roman;fontSize=13;" parent="1" vertex="1">
          <mxGeometry x="390" y="290" width="140" height="50" as="geometry" />
        </mxCell>
        <mxCell id="yD0D7PC7zvQQzbcRS5Cw-4" value="" style="shape=module;jettyWidth=8;jettyHeight=4;fontFamily=Times New Roman;fontSize=13;" parent="yD0D7PC7zvQQzbcRS5Cw-3" vertex="1">
          <mxGeometry x="1" width="20" height="20" relative="1" as="geometry">
            <mxPoint x="-27" y="7" as="offset" />
          </mxGeometry>
        </mxCell>
        <mxCell id="yD0D7PC7zvQQzbcRS5Cw-5" value="«component»&lt;br style=&quot;font-size: 13px;&quot;&gt;&lt;b style=&quot;font-size: 13px;&quot;&gt;OPC UA Adapter&lt;/b&gt;" style="html=1;dropTarget=0;whiteSpace=wrap;verticalAlign=middle;align=center;fontFamily=Times New Roman;fontSize=13;" parent="1" vertex="1">
          <mxGeometry x="230" y="410" width="140" height="50" as="geometry" />
        </mxCell>
        <mxCell id="yD0D7PC7zvQQzbcRS5Cw-6" value="" style="shape=module;jettyWidth=8;jettyHeight=4;fontFamily=Times New Roman;fontSize=13;" parent="yD0D7PC7zvQQzbcRS5Cw-5" vertex="1">
          <mxGeometry x="1" width="20" height="20" relative="1" as="geometry">
            <mxPoint x="-27" y="7" as="offset" />
          </mxGeometry>
        </mxCell>
        <mxCell id="yD0D7PC7zvQQzbcRS5Cw-7" value="«component»&lt;br style=&quot;font-size: 13px;&quot;&gt;&lt;b style=&quot;font-size: 13px;&quot;&gt;PLC Adapter&lt;/b&gt;" style="html=1;dropTarget=0;whiteSpace=wrap;verticalAlign=middle;align=center;fontFamily=Times New Roman;fontSize=13;" parent="1" vertex="1">
          <mxGeometry x="390" y="410" width="140" height="50" as="geometry" />
        </mxCell>
        <mxCell id="yD0D7PC7zvQQzbcRS5Cw-8" value="" style="shape=module;jettyWidth=8;jettyHeight=4;fontFamily=Times New Roman;fontSize=13;" parent="yD0D7PC7zvQQzbcRS5Cw-7" vertex="1">
          <mxGeometry x="1" width="20" height="20" relative="1" as="geometry">
            <mxPoint x="-27" y="7" as="offset" />
          </mxGeometry>
        </mxCell>
        <mxCell id="yD0D7PC7zvQQzbcRS5Cw-12" value="" style="rounded=0;orthogonalLoop=1;jettySize=auto;html=1;endArrow=oval;endFill=0;sketch=0;sourcePerimeterSpacing=0;targetPerimeterSpacing=0;endSize=10;fontFamily=Times New Roman;fontSize=13;" parent="1" source="yD0D7PC7zvQQzbcRS5Cw-5" target="yD0D7PC7zvQQzbcRS5Cw-13" edge="1">
          <mxGeometry relative="1" as="geometry">
            <mxPoint x="230" y="345" as="sourcePoint" />
          </mxGeometry>
        </mxCell>
        <mxCell id="yD0D7PC7zvQQzbcRS5Cw-15" value="" style="rounded=0;orthogonalLoop=1;jettySize=auto;html=1;endArrow=halfCircle;endFill=0;endSize=6;strokeWidth=1;sketch=0;entryX=1.44;entryY=0.24;entryDx=0;entryDy=0;entryPerimeter=0;fontFamily=Times New Roman;fontSize=13;" parent="1" source="yD0D7PC7zvQQzbcRS5Cw-3" target="yD0D7PC7zvQQzbcRS5Cw-13" edge="1">
          <mxGeometry relative="1" as="geometry">
            <mxPoint x="364" y="300" as="sourcePoint" />
            <mxPoint x="310" y="390" as="targetPoint" />
            <Array as="points">
              <mxPoint x="460" y="360" />
              <mxPoint x="300" y="360" />
            </Array>
          </mxGeometry>
        </mxCell>
        <mxCell id="yD0D7PC7zvQQzbcRS5Cw-13" value="" style="ellipse;whiteSpace=wrap;html=1;align=center;aspect=fixed;fillColor=none;strokeColor=none;resizable=0;perimeter=centerPerimeter;rotatable=0;allowArrows=0;points=[];outlineConnect=1;fontFamily=Times New Roman;fontSize=13;" parent="1" vertex="1">
          <mxGeometry x="295" y="380" width="10" height="10" as="geometry" />
        </mxCell>
        <mxCell id="yD0D7PC7zvQQzbcRS5Cw-16" value="" style="rounded=0;orthogonalLoop=1;jettySize=auto;html=1;endArrow=halfCircle;endFill=0;endSize=6;strokeWidth=1;sketch=0;fontFamily=Times New Roman;fontSize=13;" parent="1" source="yD0D7PC7zvQQzbcRS5Cw-3" target="yD0D7PC7zvQQzbcRS5Cw-18" edge="1">
          <mxGeometry relative="1" as="geometry">
            <mxPoint x="485" y="385" as="sourcePoint" />
          </mxGeometry>
        </mxCell>
        <mxCell id="yD0D7PC7zvQQzbcRS5Cw-17" value="" style="rounded=0;orthogonalLoop=1;jettySize=auto;html=1;endArrow=oval;endFill=0;sketch=0;sourcePerimeterSpacing=0;targetPerimeterSpacing=0;endSize=10;fontFamily=Times New Roman;fontSize=13;" parent="1" source="yD0D7PC7zvQQzbcRS5Cw-7" target="yD0D7PC7zvQQzbcRS5Cw-18" edge="1">
          <mxGeometry relative="1" as="geometry">
            <mxPoint x="445" y="385" as="sourcePoint" />
          </mxGeometry>
        </mxCell>
        <mxCell id="yD0D7PC7zvQQzbcRS5Cw-18" value="" style="ellipse;whiteSpace=wrap;html=1;align=center;aspect=fixed;fillColor=none;strokeColor=none;resizable=0;perimeter=centerPerimeter;rotatable=0;allowArrows=0;points=[];outlineConnect=1;fontFamily=Times New Roman;fontSize=13;" parent="1" vertex="1">
          <mxGeometry x="455" y="380" width="10" height="10" as="geometry" />
        </mxCell>
        <mxCell id="yD0D7PC7zvQQzbcRS5Cw-21" value="" style="rounded=0;orthogonalLoop=1;jettySize=auto;html=1;endArrow=halfCircle;endFill=0;endSize=6;strokeWidth=1;sketch=0;entryX=-0.1;entryY=0.4;entryDx=0;entryDy=0;entryPerimeter=0;fontFamily=Times New Roman;fontSize=13;" parent="1" source="yD0D7PC7zvQQzbcRS5Cw-3" target="yD0D7PC7zvQQzbcRS5Cw-23" edge="1">
          <mxGeometry relative="1" as="geometry">
            <mxPoint x="660" y="385" as="sourcePoint" />
            <mxPoint x="630" y="385" as="targetPoint" />
            <Array as="points">
              <mxPoint x="460" y="360" />
              <mxPoint x="620" y="360" />
            </Array>
          </mxGeometry>
        </mxCell>
        <mxCell id="yD0D7PC7zvQQzbcRS5Cw-22" value="" style="rounded=0;orthogonalLoop=1;jettySize=auto;html=1;endArrow=oval;endFill=0;sketch=0;sourcePerimeterSpacing=0;targetPerimeterSpacing=0;endSize=10;fontFamily=Times New Roman;fontSize=13;" parent="1" target="yD0D7PC7zvQQzbcRS5Cw-23" edge="1">
          <mxGeometry relative="1" as="geometry">
            <mxPoint x="620" y="410" as="sourcePoint" />
          </mxGeometry>
        </mxCell>
        <mxCell id="yD0D7PC7zvQQzbcRS5Cw-23" value="" style="ellipse;whiteSpace=wrap;html=1;align=center;aspect=fixed;fillColor=none;strokeColor=none;resizable=0;perimeter=centerPerimeter;rotatable=0;allowArrows=0;points=[];outlineConnect=1;fontFamily=Times New Roman;fontSize=13;" parent="1" vertex="1">
          <mxGeometry x="615" y="380" width="10" height="10" as="geometry" />
        </mxCell>
        <mxCell id="yD0D7PC7zvQQzbcRS5Cw-24" value="«component»&lt;br style=&quot;font-size: 13px;&quot;&gt;&lt;b style=&quot;font-size: 13px;&quot;&gt;Diagnostic Tool&lt;/b&gt;" style="html=1;dropTarget=0;whiteSpace=wrap;verticalAlign=middle;align=center;fontFamily=Times New Roman;fontSize=13;" parent="1" vertex="1">
          <mxGeometry x="320" y="170" width="140" height="50" as="geometry" />
        </mxCell>
        <mxCell id="yD0D7PC7zvQQzbcRS5Cw-25" value="" style="shape=module;jettyWidth=8;jettyHeight=4;fontFamily=Times New Roman;fontSize=13;" parent="yD0D7PC7zvQQzbcRS5Cw-24" vertex="1">
          <mxGeometry x="1" width="20" height="20" relative="1" as="geometry">
            <mxPoint x="-27" y="7" as="offset" />
          </mxGeometry>
        </mxCell>
        <mxCell id="yD0D7PC7zvQQzbcRS5Cw-28" value="" style="ellipse;whiteSpace=wrap;html=1;align=center;aspect=fixed;fillColor=none;strokeColor=none;resizable=0;perimeter=centerPerimeter;rotatable=0;allowArrows=0;points=[];outlineConnect=1;fontFamily=Times New Roman;fontSize=13;" parent="1" vertex="1">
          <mxGeometry x="165" y="330" width="10" height="10" as="geometry" />
        </mxCell>
        <mxCell id="yD0D7PC7zvQQzbcRS5Cw-29" value="" style="rounded=0;orthogonalLoop=1;jettySize=auto;html=1;endArrow=halfCircle;endFill=0;endSize=6;strokeWidth=1;sketch=0;fontFamily=Times New Roman;fontSize=13;" parent="1" source="yD0D7PC7zvQQzbcRS5Cw-24" edge="1">
          <mxGeometry relative="1" as="geometry">
            <mxPoint x="370" y="245" as="sourcePoint" />
            <mxPoint x="390" y="240" as="targetPoint" />
          </mxGeometry>
        </mxCell>
        <mxCell id="yD0D7PC7zvQQzbcRS5Cw-30" value="" style="rounded=0;orthogonalLoop=1;jettySize=auto;html=1;endArrow=oval;endFill=0;sketch=0;sourcePerimeterSpacing=0;targetPerimeterSpacing=0;endSize=10;fontFamily=Times New Roman;fontSize=13;" parent="1" source="yD0D7PC7zvQQzbcRS5Cw-3" edge="1">
          <mxGeometry relative="1" as="geometry">
            <mxPoint x="330" y="245" as="sourcePoint" />
            <mxPoint x="390" y="240" as="targetPoint" />
            <Array as="points">
              <mxPoint x="460" y="270" />
              <mxPoint x="390" y="270" />
            </Array>
          </mxGeometry>
        </mxCell>
        <mxCell id="yD0D7PC7zvQQzbcRS5Cw-31" value="" style="ellipse;whiteSpace=wrap;html=1;align=center;aspect=fixed;fillColor=none;strokeColor=none;resizable=0;perimeter=centerPerimeter;rotatable=0;allowArrows=0;points=[];outlineConnect=1;fontFamily=Times New Roman;fontSize=13;" parent="1" vertex="1">
          <mxGeometry x="345" y="240" width="10" height="10" as="geometry" />
        </mxCell>
        <mxCell id="yD0D7PC7zvQQzbcRS5Cw-32" value="" style="rounded=0;orthogonalLoop=1;jettySize=auto;html=1;endArrow=halfCircle;endFill=0;endSize=6;strokeWidth=1;sketch=0;fontFamily=Times New Roman;fontSize=13;" parent="1" edge="1">
          <mxGeometry relative="1" as="geometry">
            <mxPoint x="540" y="220" as="sourcePoint" />
            <mxPoint x="540" y="240" as="targetPoint" />
          </mxGeometry>
        </mxCell>
        <mxCell id="yD0D7PC7zvQQzbcRS5Cw-33" value="" style="rounded=0;orthogonalLoop=1;jettySize=auto;html=1;endArrow=oval;endFill=0;sketch=0;sourcePerimeterSpacing=0;targetPerimeterSpacing=0;endSize=10;fontFamily=Times New Roman;fontSize=13;" parent="1" source="yD0D7PC7zvQQzbcRS5Cw-3" edge="1">
          <mxGeometry relative="1" as="geometry">
            <mxPoint x="530" y="255" as="sourcePoint" />
            <mxPoint x="540" y="240" as="targetPoint" />
            <Array as="points">
              <mxPoint x="460" y="270" />
              <mxPoint x="540" y="270" />
            </Array>
          </mxGeometry>
        </mxCell>
        <mxCell id="yD0D7PC7zvQQzbcRS5Cw-34" value="" style="ellipse;whiteSpace=wrap;html=1;align=center;aspect=fixed;fillColor=none;strokeColor=none;resizable=0;perimeter=centerPerimeter;rotatable=0;allowArrows=0;points=[];outlineConnect=1;fontFamily=Times New Roman;fontSize=13;" parent="1" vertex="1">
          <mxGeometry x="545" y="250" width="10" height="10" as="geometry" />
        </mxCell>
        <mxCell id="yD0D7PC7zvQQzbcRS5Cw-35" value="..." style="text;html=1;strokeColor=none;fillColor=none;align=center;verticalAlign=middle;whiteSpace=wrap;rounded=0;fontSize=19;fontStyle=1;fontFamily=Times New Roman;" parent="1" vertex="1">
          <mxGeometry x="590" y="420" width="60" height="30" as="geometry" />
        </mxCell>
        <mxCell id="yD0D7PC7zvQQzbcRS5Cw-36" value="..." style="text;html=1;strokeColor=none;fillColor=none;align=center;verticalAlign=middle;whiteSpace=wrap;rounded=0;fontSize=19;fontStyle=1;fontFamily=Times New Roman;" parent="1" vertex="1">
          <mxGeometry x="510" y="180" width="60" height="30" as="geometry" />
        </mxCell>
        <mxCell id="yD0D7PC7zvQQzbcRS5Cw-38" value="" style="rounded=0;orthogonalLoop=1;jettySize=auto;html=1;endArrow=oval;endFill=0;sketch=0;sourcePerimeterSpacing=0;targetPerimeterSpacing=0;endSize=10;" parent="1" source="yD0D7PC7zvQQzbcRS5Cw-24" edge="1">
          <mxGeometry relative="1" as="geometry">
            <mxPoint x="255" y="295" as="sourcePoint" />
            <mxPoint x="390" y="140" as="targetPoint" />
          </mxGeometry>
        </mxCell>
        <mxCell id="yD0D7PC7zvQQzbcRS5Cw-39" value="" style="ellipse;whiteSpace=wrap;html=1;align=center;aspect=fixed;fillColor=none;strokeColor=none;resizable=0;perimeter=centerPerimeter;rotatable=0;allowArrows=0;points=[];outlineConnect=1;" parent="1" vertex="1">
          <mxGeometry x="270" y="290" width="10" height="10" as="geometry" />
        </mxCell>
        <mxCell id="yD0D7PC7zvQQzbcRS5Cw-40" value="Diagnostic Tool API" style="text;html=1;strokeColor=none;fillColor=none;align=center;verticalAlign=middle;whiteSpace=wrap;rounded=0;fontFamily=Times New Roman;fontSize=13;fontStyle=2" parent="1" vertex="1">
          <mxGeometry x="330" y="100" width="125" height="30" as="geometry" />
        </mxCell>
        <mxCell id="yD0D7PC7zvQQzbcRS5Cw-42" value="Adapter API" style="text;html=1;strokeColor=none;fillColor=none;align=center;verticalAlign=middle;whiteSpace=wrap;rounded=0;fontFamily=Times New Roman;fontSize=13;fontStyle=2" parent="1" vertex="1">
          <mxGeometry x="190" y="370" width="125" height="30" as="geometry" />
        </mxCell>
        <mxCell id="yD0D7PC7zvQQzbcRS5Cw-43" value="Adapter API" style="text;html=1;strokeColor=none;fillColor=none;align=center;verticalAlign=middle;whiteSpace=wrap;rounded=0;fontFamily=Times New Roman;fontSize=13;fontStyle=2" parent="1" vertex="1">
          <mxGeometry x="345" y="370" width="125" height="30" as="geometry" />
        </mxCell>
        <mxCell id="yD0D7PC7zvQQzbcRS5Cw-44" value="Adapter API" style="text;html=1;strokeColor=none;fillColor=none;align=center;verticalAlign=middle;whiteSpace=wrap;rounded=0;fontFamily=Times New Roman;fontSize=13;fontStyle=2" parent="1" vertex="1">
          <mxGeometry x="510" y="370" width="125" height="30" as="geometry" />
        </mxCell>
        <mxCell id="yD0D7PC7zvQQzbcRS5Cw-45" value="Data Store API" style="text;html=1;strokeColor=none;fillColor=none;align=center;verticalAlign=middle;whiteSpace=wrap;rounded=0;fontFamily=Times New Roman;fontSize=13;fontStyle=2" parent="1" vertex="1">
          <mxGeometry x="270" y="230" width="125" height="30" as="geometry" />
        </mxCell>
        <mxCell id="yD0D7PC7zvQQzbcRS5Cw-46" value="Data Store API" style="text;html=1;strokeColor=none;fillColor=none;align=center;verticalAlign=middle;whiteSpace=wrap;rounded=0;fontFamily=Times New Roman;fontSize=13;fontStyle=2" parent="1" vertex="1">
          <mxGeometry x="420" y="230" width="125" height="30" as="geometry" />
        </mxCell>
        <mxCell id="yD0D7PC7zvQQzbcRS5Cw-48" value="" style="rounded=0;orthogonalLoop=1;jettySize=auto;html=1;endArrow=oval;endFill=0;sketch=0;sourcePerimeterSpacing=0;targetPerimeterSpacing=0;endSize=10;" parent="1" source="yD0D7PC7zvQQzbcRS5Cw-5" edge="1">
          <mxGeometry relative="1" as="geometry">
            <mxPoint x="270" y="525" as="sourcePoint" />
            <mxPoint x="200" y="435" as="targetPoint" />
          </mxGeometry>
        </mxCell>
        <mxCell id="yD0D7PC7zvQQzbcRS5Cw-49" value="" style="ellipse;whiteSpace=wrap;html=1;align=center;aspect=fixed;fillColor=none;strokeColor=none;resizable=0;perimeter=centerPerimeter;rotatable=0;allowArrows=0;points=[];outlineConnect=1;" parent="1" vertex="1">
          <mxGeometry x="285" y="520" width="10" height="10" as="geometry" />
        </mxCell>
        <mxCell id="yD0D7PC7zvQQzbcRS5Cw-50" value="OPC UA &lt;br&gt;Adapter API" style="text;html=1;strokeColor=none;fillColor=none;align=center;verticalAlign=middle;whiteSpace=wrap;rounded=0;fontFamily=Times New Roman;fontSize=13;fontStyle=2" parent="1" vertex="1">
          <mxGeometry x="130" y="450" width="125" height="30" as="geometry" />
        </mxCell>
        <mxCell id="yD0D7PC7zvQQzbcRS5Cw-53" value="" style="ellipse;whiteSpace=wrap;html=1;align=center;aspect=fixed;fillColor=none;strokeColor=none;resizable=0;perimeter=centerPerimeter;rotatable=0;allowArrows=0;points=[];outlineConnect=1;" parent="1" vertex="1">
          <mxGeometry x="555" y="550" width="10" height="10" as="geometry" />
        </mxCell>
        <mxCell id="B58Qtrrg_H3jmG3oLYfc-1" value="«component»&lt;br style=&quot;font-size: 13px;&quot;&gt;&lt;b&gt;OPC UA Server&lt;/b&gt;" style="html=1;dropTarget=0;whiteSpace=wrap;verticalAlign=middle;align=center;fontFamily=Times New Roman;fontSize=13;" vertex="1" parent="1">
          <mxGeometry x="165" y="540" width="140" height="50" as="geometry" />
        </mxCell>
        <mxCell id="B58Qtrrg_H3jmG3oLYfc-2" value="" style="shape=module;jettyWidth=8;jettyHeight=4;fontFamily=Times New Roman;fontSize=13;" vertex="1" parent="B58Qtrrg_H3jmG3oLYfc-1">
          <mxGeometry x="1" width="20" height="20" relative="1" as="geometry">
            <mxPoint x="-27" y="7" as="offset" />
          </mxGeometry>
        </mxCell>
        <mxCell id="B58Qtrrg_H3jmG3oLYfc-3" value="" style="rounded=0;orthogonalLoop=1;jettySize=auto;html=1;endArrow=halfCircle;endFill=0;endSize=6;strokeWidth=1;sketch=0;" edge="1" target="B58Qtrrg_H3jmG3oLYfc-5" parent="1" source="yD0D7PC7zvQQzbcRS5Cw-5">
          <mxGeometry relative="1" as="geometry">
            <mxPoint x="305" y="535" as="sourcePoint" />
            <mxPoint x="250" y="530" as="targetPoint" />
            <Array as="points">
              <mxPoint x="300" y="490" />
              <mxPoint x="235" y="490" />
            </Array>
          </mxGeometry>
        </mxCell>
        <mxCell id="B58Qtrrg_H3jmG3oLYfc-4" value="" style="rounded=0;orthogonalLoop=1;jettySize=auto;html=1;endArrow=oval;endFill=0;sketch=0;sourcePerimeterSpacing=0;targetPerimeterSpacing=0;endSize=10;" edge="1" target="B58Qtrrg_H3jmG3oLYfc-5" parent="1" source="B58Qtrrg_H3jmG3oLYfc-1">
          <mxGeometry relative="1" as="geometry">
            <mxPoint x="265" y="535" as="sourcePoint" />
            <Array as="points">
              <mxPoint x="235" y="535" />
            </Array>
          </mxGeometry>
        </mxCell>
        <mxCell id="B58Qtrrg_H3jmG3oLYfc-5" value="" style="ellipse;whiteSpace=wrap;html=1;align=center;aspect=fixed;fillColor=none;strokeColor=none;resizable=0;perimeter=centerPerimeter;rotatable=0;allowArrows=0;points=[];outlineConnect=1;" vertex="1" parent="1">
          <mxGeometry x="230" y="510" width="10" height="10" as="geometry" />
        </mxCell>
        <mxCell id="B58Qtrrg_H3jmG3oLYfc-6" value="OPC UA" style="text;html=1;strokeColor=none;fillColor=none;align=center;verticalAlign=middle;whiteSpace=wrap;rounded=0;fontFamily=Times New Roman;fontSize=13;fontStyle=2" vertex="1" parent="1">
          <mxGeometry x="130" y="500" width="125" height="30" as="geometry" />
        </mxCell>
        <mxCell id="B58Qtrrg_H3jmG3oLYfc-7" value="" style="rounded=0;orthogonalLoop=1;jettySize=auto;html=1;endArrow=halfCircle;endFill=0;endSize=6;strokeWidth=1;sketch=0;" edge="1" target="B58Qtrrg_H3jmG3oLYfc-9" parent="1" source="yD0D7PC7zvQQzbcRS5Cw-5">
          <mxGeometry relative="1" as="geometry">
            <mxPoint x="410" y="555" as="sourcePoint" />
            <mxPoint x="350" y="490" as="targetPoint" />
            <Array as="points">
              <mxPoint x="300" y="490" />
              <mxPoint x="360" y="490" />
            </Array>
          </mxGeometry>
        </mxCell>
        <mxCell id="B58Qtrrg_H3jmG3oLYfc-8" value="" style="rounded=0;orthogonalLoop=1;jettySize=auto;html=1;endArrow=oval;endFill=0;sketch=0;sourcePerimeterSpacing=0;targetPerimeterSpacing=0;endSize=10;" edge="1" target="B58Qtrrg_H3jmG3oLYfc-9" parent="1">
          <mxGeometry relative="1" as="geometry">
            <mxPoint x="360" y="540" as="sourcePoint" />
          </mxGeometry>
        </mxCell>
        <mxCell id="B58Qtrrg_H3jmG3oLYfc-9" value="" style="ellipse;whiteSpace=wrap;html=1;align=center;aspect=fixed;fillColor=none;strokeColor=none;resizable=0;perimeter=centerPerimeter;rotatable=0;allowArrows=0;points=[];outlineConnect=1;" vertex="1" parent="1">
          <mxGeometry x="355" y="510" width="10" height="10" as="geometry" />
        </mxCell>
        <mxCell id="B58Qtrrg_H3jmG3oLYfc-11" value="..." style="text;html=1;strokeColor=none;fillColor=none;align=center;verticalAlign=middle;whiteSpace=wrap;rounded=0;fontSize=19;fontStyle=1;fontFamily=Times New Roman;" vertex="1" parent="1">
          <mxGeometry x="330" y="550" width="60" height="30" as="geometry" />
        </mxCell>
        <mxCell id="B58Qtrrg_H3jmG3oLYfc-12" value="" style="endArrow=none;html=1;rounded=0;" edge="1" parent="1" target="yD0D7PC7zvQQzbcRS5Cw-7">
          <mxGeometry width="50" height="50" relative="1" as="geometry">
            <mxPoint x="460" y="490" as="sourcePoint" />
            <mxPoint x="530" y="520" as="targetPoint" />
          </mxGeometry>
        </mxCell>
      </root>
    </mxGraphModel>
  </diagram>
</mxfile>
