<mxfile host="Electron" modified="2024-02-02T15:42:56.155Z" agent="Mozilla/5.0 (Windows NT 10.0; Win64; x64) AppleWebKit/537.36 (KHTML, like Gecko) draw.io/22.1.18 Chrome/120.0.6099.199 Electron/28.1.2 Safari/537.36" etag="uQZdGuUFmzDhMV7zIobl" version="22.1.18" type="device">
  <diagram name="Stránka-1" id="13F-PDEb6PEl9DLS1nxx">
    <mxGraphModel dx="1050" dy="629" grid="1" gridSize="10" guides="1" tooltips="1" connect="1" arrows="1" fold="1" page="1" pageScale="1" pageWidth="827" pageHeight="1169" math="0" shadow="0">
      <root>
        <mxCell id="0" />
        <mxCell id="1" parent="0" />
        <mxCell id="57R3L1WBn9GwPIje4zAh-31" value="" style="rounded=0;whiteSpace=wrap;html=1;strokeColor=#7C858C;fontColor=#EEEEEE;fillColor=none;strokeWidth=2;labelBackgroundColor=none;" parent="1" vertex="1">
          <mxGeometry x="220" y="460" width="340" height="250" as="geometry" />
        </mxCell>
        <mxCell id="57R3L1WBn9GwPIje4zAh-21" style="edgeStyle=orthogonalEdgeStyle;rounded=0;orthogonalLoop=1;jettySize=auto;html=1;strokeColor=#0B4D6A;fontColor=default;endArrow=none;endFill=0;strokeWidth=1;startArrow=classic;startFill=1;labelBackgroundColor=none;" parent="1" source="Ad9R94a2Mg2Lj3m6bLy1-3" target="57R3L1WBn9GwPIje4zAh-15" edge="1">
          <mxGeometry relative="1" as="geometry" />
        </mxCell>
        <mxCell id="Ad9R94a2Mg2Lj3m6bLy1-3" value="" style="fontColor=#EEEEEE;verticalAlign=top;verticalLabelPosition=bottom;labelPosition=center;align=center;html=1;outlineConnect=0;fillColor=#09555B;strokeColor=#BAC8D3;gradientDirection=north;strokeWidth=2;shape=mxgraph.networks.modem;labelBackgroundColor=none;" parent="1" vertex="1">
          <mxGeometry x="245" y="750" width="60" height="20" as="geometry" />
        </mxCell>
        <mxCell id="57R3L1WBn9GwPIje4zAh-38" style="rounded=0;orthogonalLoop=1;jettySize=auto;html=1;strokeColor=#0B4D6A;fontColor=default;labelBackgroundColor=none;" parent="1" source="Ad9R94a2Mg2Lj3m6bLy1-5" target="57R3L1WBn9GwPIje4zAh-14" edge="1">
          <mxGeometry relative="1" as="geometry" />
        </mxCell>
        <mxCell id="Ad9R94a2Mg2Lj3m6bLy1-5" value="" style="fontColor=#EEEEEE;verticalAlign=top;verticalLabelPosition=bottom;labelPosition=center;align=center;html=1;outlineConnect=0;fillColor=#09555B;strokeColor=#BAC8D3;gradientDirection=north;strokeWidth=2;shape=mxgraph.networks.tablet;labelBackgroundColor=none;" parent="1" vertex="1">
          <mxGeometry x="480" y="349.38" width="65" height="43.75" as="geometry" />
        </mxCell>
        <mxCell id="57R3L1WBn9GwPIje4zAh-36" style="rounded=0;orthogonalLoop=1;jettySize=auto;html=1;strokeColor=#0B4D6A;fontColor=default;labelBackgroundColor=none;" parent="1" source="Ad9R94a2Mg2Lj3m6bLy1-6" target="57R3L1WBn9GwPIje4zAh-14" edge="1">
          <mxGeometry relative="1" as="geometry" />
        </mxCell>
        <mxCell id="Ad9R94a2Mg2Lj3m6bLy1-6" value="" style="fontColor=#EEEEEE;verticalAlign=top;verticalLabelPosition=bottom;labelPosition=center;align=center;html=1;outlineConnect=0;fillColor=#09555B;strokeColor=#BAC8D3;gradientDirection=north;strokeWidth=2;shape=mxgraph.networks.terminal;labelBackgroundColor=none;" parent="1" vertex="1">
          <mxGeometry x="245" y="346.25" width="80" height="60" as="geometry" />
        </mxCell>
        <mxCell id="57R3L1WBn9GwPIje4zAh-37" style="rounded=0;orthogonalLoop=1;jettySize=auto;html=1;strokeColor=#0B4D6A;fontColor=default;labelBackgroundColor=none;" parent="1" source="Ad9R94a2Mg2Lj3m6bLy1-7" target="57R3L1WBn9GwPIje4zAh-14" edge="1">
          <mxGeometry relative="1" as="geometry" />
        </mxCell>
        <mxCell id="Ad9R94a2Mg2Lj3m6bLy1-7" value="" style="fontColor=#EEEEEE;verticalAlign=top;verticalLabelPosition=bottom;labelPosition=center;align=center;html=1;outlineConnect=0;fillColor=#09555B;strokeColor=#BAC8D3;gradientDirection=north;strokeWidth=2;shape=mxgraph.networks.mobile;labelBackgroundColor=none;" parent="1" vertex="1">
          <mxGeometry x="377.5" y="346.25" width="30" height="50" as="geometry" />
        </mxCell>
        <mxCell id="57R3L1WBn9GwPIje4zAh-7" value="" style="fontColor=#EEEEEE;verticalAlign=top;verticalLabelPosition=bottom;labelPosition=center;align=center;html=1;outlineConnect=0;fillColor=#09555B;strokeColor=#BAC8D3;gradientDirection=north;strokeWidth=2;shape=mxgraph.networks.modem;labelBackgroundColor=none;" parent="1" vertex="1">
          <mxGeometry x="405" y="750" width="60" height="20" as="geometry" />
        </mxCell>
        <mxCell id="57R3L1WBn9GwPIje4zAh-8" value="" style="fontColor=#EEEEEE;verticalAlign=top;verticalLabelPosition=bottom;labelPosition=center;align=center;html=1;outlineConnect=0;fillColor=#09555B;strokeColor=#BAC8D3;gradientDirection=north;strokeWidth=2;shape=mxgraph.networks.modem;labelBackgroundColor=none;" parent="1" vertex="1">
          <mxGeometry x="485" y="750" width="60" height="20" as="geometry" />
        </mxCell>
        <mxCell id="57R3L1WBn9GwPIje4zAh-9" value="" style="fontColor=#EEEEEE;verticalAlign=top;verticalLabelPosition=bottom;labelPosition=center;align=center;html=1;outlineConnect=0;fillColor=#09555B;strokeColor=#BAC8D3;gradientDirection=north;strokeWidth=2;shape=mxgraph.networks.modem;labelBackgroundColor=none;" parent="1" vertex="1">
          <mxGeometry x="325" y="750" width="60" height="20" as="geometry" />
        </mxCell>
        <mxCell id="57R3L1WBn9GwPIje4zAh-26" style="rounded=0;orthogonalLoop=1;jettySize=auto;html=1;strokeColor=#0B4D6A;fontColor=default;strokeWidth=1;startArrow=none;startFill=0;labelBackgroundColor=none;" parent="1" source="57R3L1WBn9GwPIje4zAh-13" target="57R3L1WBn9GwPIje4zAh-18" edge="1">
          <mxGeometry relative="1" as="geometry" />
        </mxCell>
        <mxCell id="57R3L1WBn9GwPIje4zAh-13" value="" style="fontColor=#EEEEEE;verticalAlign=top;verticalLabelPosition=bottom;labelPosition=center;align=center;html=1;outlineConnect=0;fillColor=#09555B;strokeColor=#BAC8D3;gradientDirection=north;strokeWidth=2;shape=mxgraph.networks.server;labelBackgroundColor=none;" parent="1" vertex="1">
          <mxGeometry x="268.75" y="560" width="42.5" height="50" as="geometry" />
        </mxCell>
        <mxCell id="57R3L1WBn9GwPIje4zAh-14" value="" style="fontColor=#EEEEEE;verticalAlign=top;verticalLabelPosition=bottom;labelPosition=center;align=center;html=1;outlineConnect=0;fillColor=#09555B;strokeColor=#BAC8D3;gradientDirection=north;strokeWidth=2;shape=mxgraph.networks.firewall;labelBackgroundColor=none;" parent="1" vertex="1">
          <mxGeometry x="367.5" y="440" width="50" height="40" as="geometry" />
        </mxCell>
        <mxCell id="57R3L1WBn9GwPIje4zAh-20" style="rounded=0;orthogonalLoop=1;jettySize=auto;html=1;strokeColor=#0B4D6A;fontColor=default;endArrow=none;endFill=0;strokeWidth=1;startArrow=classic;startFill=1;labelBackgroundColor=none;" parent="1" source="57R3L1WBn9GwPIje4zAh-15" target="57R3L1WBn9GwPIje4zAh-18" edge="1">
          <mxGeometry relative="1" as="geometry" />
        </mxCell>
        <mxCell id="57R3L1WBn9GwPIje4zAh-15" value="" style="fontColor=#EEEEEE;verticalAlign=top;verticalLabelPosition=bottom;labelPosition=center;align=center;html=1;outlineConnect=0;fillColor=#09555B;strokeColor=#BAC8D3;gradientDirection=north;strokeWidth=2;shape=mxgraph.networks.patch_panel;labelBackgroundColor=none;" parent="1" vertex="1">
          <mxGeometry x="245" y="660" width="60" height="20" as="geometry" />
        </mxCell>
        <mxCell id="57R3L1WBn9GwPIje4zAh-25" style="edgeStyle=orthogonalEdgeStyle;rounded=0;orthogonalLoop=1;jettySize=auto;html=1;strokeColor=#0B4D6A;fontColor=default;endArrow=none;endFill=0;strokeWidth=1;startArrow=classic;startFill=1;labelBackgroundColor=none;" parent="1" source="57R3L1WBn9GwPIje4zAh-17" target="57R3L1WBn9GwPIje4zAh-18" edge="1">
          <mxGeometry relative="1" as="geometry" />
        </mxCell>
        <mxCell id="57R3L1WBn9GwPIje4zAh-32" style="rounded=0;orthogonalLoop=1;jettySize=auto;html=1;strokeColor=#0B4D6A;fontColor=default;labelBackgroundColor=none;" parent="1" source="57R3L1WBn9GwPIje4zAh-17" target="57R3L1WBn9GwPIje4zAh-9" edge="1">
          <mxGeometry relative="1" as="geometry" />
        </mxCell>
        <mxCell id="57R3L1WBn9GwPIje4zAh-33" style="edgeStyle=orthogonalEdgeStyle;rounded=0;orthogonalLoop=1;jettySize=auto;html=1;strokeColor=#0B4D6A;fontColor=default;labelBackgroundColor=none;" parent="1" source="57R3L1WBn9GwPIje4zAh-17" target="57R3L1WBn9GwPIje4zAh-7" edge="1">
          <mxGeometry relative="1" as="geometry" />
        </mxCell>
        <mxCell id="57R3L1WBn9GwPIje4zAh-34" style="rounded=0;orthogonalLoop=1;jettySize=auto;html=1;strokeColor=#0B4D6A;fontColor=default;labelBackgroundColor=none;" parent="1" source="57R3L1WBn9GwPIje4zAh-17" target="57R3L1WBn9GwPIje4zAh-8" edge="1">
          <mxGeometry relative="1" as="geometry" />
        </mxCell>
        <mxCell id="57R3L1WBn9GwPIje4zAh-17" value="" style="fontColor=#EEEEEE;verticalAlign=top;verticalLabelPosition=bottom;labelPosition=center;align=center;html=1;outlineConnect=0;fillColor=#09555B;strokeColor=#BAC8D3;gradientDirection=north;strokeWidth=2;shape=mxgraph.networks.patch_panel;labelBackgroundColor=none;" parent="1" vertex="1">
          <mxGeometry x="405" y="660" width="60" height="20" as="geometry" />
        </mxCell>
        <mxCell id="57R3L1WBn9GwPIje4zAh-18" value="" style="fontColor=#EEEEEE;verticalAlign=top;verticalLabelPosition=bottom;labelPosition=center;align=center;html=1;outlineConnect=0;fillColor=#09555B;strokeColor=#BAC8D3;gradientDirection=north;strokeWidth=2;shape=mxgraph.networks.server_storage;labelBackgroundColor=none;" parent="1" vertex="1">
          <mxGeometry x="405" y="530" width="60" height="55" as="geometry" />
        </mxCell>
        <mxCell id="57R3L1WBn9GwPIje4zAh-40" style="rounded=0;orthogonalLoop=1;jettySize=auto;html=1;strokeColor=#0B4D6A;fontColor=default;labelBackgroundColor=none;" parent="1" source="57R3L1WBn9GwPIje4zAh-39" target="57R3L1WBn9GwPIje4zAh-18" edge="1">
          <mxGeometry relative="1" as="geometry" />
        </mxCell>
        <mxCell id="57R3L1WBn9GwPIje4zAh-39" value="" style="fontColor=#EEEEEE;verticalAlign=top;verticalLabelPosition=bottom;labelPosition=center;align=center;html=1;outlineConnect=0;fillColor=#09555B;strokeColor=#BAC8D3;gradientDirection=north;strokeWidth=2;shape=mxgraph.networks.server;labelBackgroundColor=none;" parent="1" vertex="1">
          <mxGeometry x="268.75" y="490" width="42.5" height="50" as="geometry" />
        </mxCell>
        <mxCell id="57R3L1WBn9GwPIje4zAh-41" value="1" style="ellipse;whiteSpace=wrap;html=1;aspect=fixed;strokeColor=#BAC8D3;fontColor=#000000;fillColor=none;fontFamily=Times New Roman;fontSize=15;fontStyle=1;labelBackgroundColor=none;" parent="1" vertex="1">
          <mxGeometry x="423.13" y="466.25" width="23.75" height="23.75" as="geometry" />
        </mxCell>
        <mxCell id="57R3L1WBn9GwPIje4zAh-42" value="2" style="ellipse;whiteSpace=wrap;html=1;aspect=fixed;strokeColor=#BAC8D3;fontColor=#000000;fillColor=none;fontFamily=Times New Roman;fontSize=15;fontStyle=1;labelBackgroundColor=none;" parent="1" vertex="1">
          <mxGeometry x="230" y="490" width="23.75" height="23.75" as="geometry" />
        </mxCell>
        <mxCell id="57R3L1WBn9GwPIje4zAh-43" value="3" style="ellipse;whiteSpace=wrap;html=1;aspect=fixed;strokeColor=#BAC8D3;fontColor=#000000;fillColor=none;fontFamily=Times New Roman;fontSize=15;fontStyle=1;labelBackgroundColor=none;" parent="1" vertex="1">
          <mxGeometry x="470" y="530" width="23.75" height="23.75" as="geometry" />
        </mxCell>
        <mxCell id="57R3L1WBn9GwPIje4zAh-44" value="4" style="ellipse;whiteSpace=wrap;html=1;aspect=fixed;strokeColor=#BAC8D3;fontColor=#000000;fillColor=none;fontFamily=Times New Roman;fontSize=15;fontStyle=1;labelBackgroundColor=none;" parent="1" vertex="1">
          <mxGeometry x="465" y="636.25" width="23.75" height="23.75" as="geometry" />
        </mxCell>
        <mxCell id="57R3L1WBn9GwPIje4zAh-45" value="5" style="ellipse;whiteSpace=wrap;html=1;aspect=fixed;strokeColor=#BAC8D3;fontColor=#000000;fillColor=none;fontFamily=Times New Roman;fontSize=15;fontStyle=1;labelBackgroundColor=none;" parent="1" vertex="1">
          <mxGeometry x="560" y="746.25" width="23.75" height="23.75" as="geometry" />
        </mxCell>
      </root>
    </mxGraphModel>
  </diagram>
</mxfile>
